{
  "category": [
    {
      "name": "ChannelList",
      "subcategory": [ 		
		"BR: A&E ROBERT.B",
        "BR: Agro Canal FHD",
        "BR: Amazon Prime 1 HD",
        "BR: Amazon Prime 2 HD",
        "BR: AMC FHD",
        "BR: Animal Planet FHD",
        "BR: Arte 1 FHD",
        "BR: AXN FHD",
        "BR: Baby TV",   
        "BR: Band FHD",
        "BR: Band Mais Campinas FHD",
        "BR: Band News HD",
        "BR: Band Sports FHD",
        "BR: Bloomberg TV FHD",
        "BR: BIS FHD",
        "BR: Boa vontade FHD",
        "BR: Boomerang FHD",
        "BR: Canal Brasil FHD",
        "BR: Canal do boi FHD",
        "BR: Canal rural",
        "BR: Cancao Nova HD",
        "BR: Cartoon Network FHD",
        "BR: CBN News FHD",
        "BR: Chefe TV FHD",
        "BR: Cine Brasil FHD",
        "BR: Cinemax FHD",
        "BR: Clima Tempo FHD",
        "BR: CNN Brasil FHD",
        "BR: CNN Internacional",
        "BR: CNT FHD",
        "BR: Combate FHD",
        "BR: Comedy Central FHD",
        "BR: Conmebol TV 1 HD",
        "BR: Conmebol TV 2 HD",
        "BR: Conmebol TV 3 HD",
        "BR: Conmebol TV 4 HD",
        "BR: Campeonato Carioca 1 HD",
        "BR: Campeonato Carioca 2 HD",
        "BR: Copa Nordeste 1 HD",
        "BR: Copa Nordeste 2 HD",
        "BR: Curta FHD",
        "BR: DAZN 1 HD",
        "BR: DAZN 2 HD",
        "BR: Discovery Channel FHD",
        "BR: Discovery Home Health FHD",
        "BR: Discovery Kids FHD",
        "BR: Discovery Science FHD",
        "BR: Discovery Theater FHD",
        "BR: Discovery Turbo FHD",
        "BR: Discovery World FHD",
        "BR: Disney Channel FHD",
        "BR: Dog TV FHD",
        "BR: DW Deutsch FHD",
        "BR: E! FHD",
        "BR: Euronews FHD",
        "BR: ESPN 1 FHD",
        "BR: ESPN 2 FHD",
        "BR: ESPN 3 FHD",
        "BR: ESPN 4 FHD",
        "BR: ESPN Extra FHD",
        "BR: ESR FHD",
        "BR: Fashion TV FHD",
        "BR: Film&arts FHD",
        "BR: Fish TV FHD",
        "BR: Food Network FHD",
        "BR: FOX News",
        "BR: FOX Sports 2 FHD",
        "BR: Furacao Play HD",
        "BR: Futebol Pelo Mundo",
        "BR: Futura FHD",
        "BR: FX FHD",
        "BR: Globo Belo Horizonte FHD",
        "BR: Globo Brasilia FHD",
        "BR: Globo Campinas FHD",
        "BR: Globo Centro America FHD",
        "BR: Globo EPTV Campinas FHD",
        "BR: Globo EPTV Ribeirao Preto FHD",
        "BR: Globo EPTV Sao Carlos FHD",
        "BR: Globo EPTV Sul De Minas FHD",
        "BR: Globo Inter TV Alto Litoral FHD",
        "BR: Globo Inter TV Cabugi Natal FHD",
        "BR: Globo Inter TV Dos Vales FHD",
        "BR: Globo Inter TV Grande Minas FHD",
        "BR: Globo Inter TV Serra Mar FHD",
        "BR: Globo Minas FHD",
        "BR: Globo News FHD",
        "BR: Globo Nordeste FHD",
        "BR: Globo Nsc TV Biumenau FHD",
        "BR: Globo Nsc TV Centro Oeste FHD",
        "BR: Globo Nsc TV Chapeco FHD",
        "BR: Globo Nsc TV Criciuma FHD",
        "BR: Globo Nsc TV Florianopolis FHD",
        "BR: Globo Nsc TV Joinville FHD",
        "BR: Globo Porto Alegre FHD",
        "BR: Globo Rbs TV Caxias Do Sul FHD",
        "BR: Globo Rbs TV Passo Fundo FHD",
        "BR: Globo Rbs TV Pelotas FHD",
        "BR: Globo Rio De Janeiro FHD",
        "BR: Globo Ribeirao Preto FHD",
        "BR: Globo Rj FHD",
        "BR: Globo Rpc Curitiba FHD",
        "BR: Globo Rpc Foz Do Iguacu FHD",
        "BR: Globo Rpc Maringa FHD",
        "BR: Globo Rpc TV Paranaval FHD",
        "BR: Globo Rpc TV Ponta Grossa FHD",
        "BR: Globo SP FHD",
        "BR: Globo TV Anhanguera FHD",
        "BR: Globo TV Bahia FHD",
        "BR: Globo TV Cabo Branco FHD",
        "BR: Globo TV Diario Mogi Das Cruzes FHD",
        "BR: Globo TV Fronteira P. Prudente FHD",
        "BR: Globo TV Gazeta Alagoas FHD",
        "BR: Globo TV Gazeta Sul FHD",
        "BR: Globo TV Gazeta Vitoria FHD",
        "BR: Globo TV Integracao Araxa FHD",
        "BR: Globo TV Integracao Juiz De Fora FHD",
        "BR: Globo TV Integracao Uberlandia FHD",
        "BR: Globo TV Liberal Belem FHD",
        "BR: Globo TV Mirante Cocais FHD",
        "BR: Globo TV Mirante Sao Luis FHD",
        "BR: Globo TV Morena FHD",
        "BR: Globo TV Morena Campo Grande FHD",
        "BR: Globo TV Rede Amazonica Boa Vista FHD",
        "BR: Globo TV Rede Amazonica Macapa FHD",
        "BR: Globo TV Rede Amazonica Manaus FHD",
        "BR: Globo TV Rede Amazonica Rio Branco FHD",
        "BR: Globo TV Rio Sul FHD",
        "BR: Globo TV Santa Cruz FHD",
        "BR: Globo TV Sergipe FHD",
        "BR: Globo TV Tem Bauru FHD",
        "BR: Globo TV Tem S.J.Rio Preto FHD",
        "BR: Globo TV Tem Sorocaba FHD",
        "BR: Globo TV Tribuna Santos FHD",
        "BR: Globo TV Vanguarda S.J.Dos Campos FHD",
        "BR: Globo TV Vanguarda Taubate FHD",
        "BR: Globo TV Verdes Mares Cariri FHD",
        "BR: Globo TV Verdes Mares Fortaleza FHD",
        "BR: Globosat FHD",
        "BR: Gloob FHD",
        "BR: Gloobinho FHD",
        "BR: Gnt FHD",
        "BR: Golf Channel FHD",
        "BR: H2 FHD",
        "BR: HBO FHD",
        "BR: HBO 2 FHD",
        "BR: HBO Family FHD",
        "BR: HBO Max 1 HD",
        "BR: HBO Max 2 HD",
        "BR: HBO Max 3 HD",
        "BR: HBO Max 4 HD",
        "BR: HBO Mundi FHD",
        "BR: HBO Plus FHD",
        "BR: HBO pop FHD",
        "BR: HBO Pop HD LEG",
        "BR: HBO Signature FHD",
        "BR: HBO Xtreme FHD",
        "BR: HGTV FHD",
        "BR: History FHD",
        "BR: ID FHD",
        "BR: Ideal TV FHD",
        "BR: Jovem Pan News FHD",
        "BR: Lifetime FHD",
        "BR: Libertadores 1 FHD",
        "BR: Libertadores 2 FHD",
        "BR: MegaPix FHD",
        "BR: MegaPix HD LEG",
        "BR: MTV 00s FHD",
        "BR: MTV FHD",
        "BR: MTV Live FHD",
        "BR: Multishow FHD",
        "BR: Music Box Brasil FHD",
        "BR: NatGeo FHD",
        "BR: NordesteFC 1 HD",
        "BR: NordesteFC 2 HD",
        "BR: NHK FHD",
        "BR: Nick Jr FHD",
        "BR: Nickelondeon FHD",
        "BR: Off FHD",
        "BR: Paramount FHD",
        "BR: Paulistao Play 1 HD",
        "BR: Paulistao Play 2 HD",
        "BR: Paulistao Play 3 HD",
        "BR: Paulistao Play 4 HD",
        "BR: Polishop FHD",
        "BR: Premieres 2 FHD",
        "BR: Premieres 3 FHD",
        "BR: Premieres 4 FHD",
        "BR: Premieres 5 FHD",
        "BR: Premieres 6 FHD",
        "BR: Premieres 7 FHD",
        "BR: Premieres 8 FHD",
        "BR: Premieres Clubes FHD",
        "BR: Prime Box Brazil FHD",
        "BR: Rai News 24 FHD",
        "BR: Record Belem Do Para FHD",
        "BR: Record Cabralia FHD",
        "BR: Record Goias FHD",
        "BR: Record Interior SP FHD",
        "BR: Record Litoral Vale Do Parnalba FHD",
        "BR: Record News FHD",
        "BR: Record Paulista FHD",
        "BR: Record Rio FHD",
        "BR: Record Rio Preto FHD",
        "BR: Record Rj Interior FHD",
        "BR: Record Rs FHD",
        "BR: Record Sic TV Rondonia FHD",
        "BR: Record Sp FHD",
        "BR: Record TV Thathi Campinas FHD",
        "BR: RecordTV Campinas FHD",
        "BR: RecordTV FHD",
        "BR: RecordTV Sp FHD",
        "BR: RecordTV Vila Real FHD",
        "BR: Red Bull TV FHD",
        "BR: Rede Familia FHD",
        "BR: Rede Genesis FHD",
        "BR: Rede Gospel FHD",
        "BR: Rede Super FHD",
        "BR: Rede TV FHD",
        "BR: Rede Vida FHD",
        "BR: Rit",
        "BR: Sabor e Arte FHD",
        "BR: Sbt Bahia FHD",
        "BR: Sbt Rio FHD",
        "BR: Sbt Rs FHD",
        "BR: Sbt Sp FHD",
        "BR: Sbt TV Alterosa FHD",
        "BR: Sbt TV Aratu FHD",
        "BR: Shoptime HD",
        "BR: Smithsonian FHD",
        "BR: Sony FHD",
        "BR: Space FHD",
        "BR: Sport TV FHD",
        "BR: Sport TV2 FHD",
        "BR: Sport TV3 FHD",
        "BR: Star channel FHD",
        "BR: Star life FHD",
        "BR: Studio Universal FHD",
        "BR: Syfy FHD",
        "BR: Tbs FHD",
        "BR: TC Action FHD",
        "BR: TC Cult FHD",
        "BR: TC Cult LEG HD",
        "BR: TC Fun FHD",
        "BR: TC Pipoca FHD",
        "BR: TC Premium FHD",
        "BR: TC Touch FHD",
        "BR: TCM FHD",
        "BR: Terra Viva HD",
        "BR: TLC FHD",
        "BR: TNT FHD",
        "BR: TNT Series FHD",
        "BR: Tooncast HD",
        "BR: Travel Box Brazil FHD",
        "BR: TruTV FHD",
        "BR: TV Acritica FHD",
        "BR: TV Aparecida FHD",
        "BR: TV Assembleia FHD",
        "BR: TV Brasil FHD",
        "BR: TV Brasil 2 FHD",
        "BR: TV Camara FHD",
        "BR: TV Cultura FHD",
        "BR: TV Escola FHD",
        "BR: TV Gazeta FHD",
        "BR: TV Gazeta Sp FHD",
        "BR: TV Mundo Maior FHD",
        "BR: TV novo tempo FHD",
        "BR: TV Pai Eterno FHD",
        "BR: TV Ra Tim Bum FHD",
        "BR: TV Senado FHD",
        "BR: TVE FHD",
        "BR: Universal Channels FHD",
        "BR: Urban Docs HD",
        "BR: Urban Kids HD",
        "BR: Urban Movies HD",
        "BR: Urban Series HD",
        "BR: Viva FHD",
        "BR: Warner FHD",
        "BR: Woohoo FHD",
        "BR: Zoomo FHD",
        "AR: Playboy FHD",
        "AR: Sexy Hot FHD",
        "AR: Sex Prive HD",
        "AR: Sextreme FHD",
        "AR: Venus FHD"
      ]
    },	
    {
      "name": "HD+",
      "subcategory": [      	
		"BR: A&E FHD",
        "BR: Agro Canal FHD",                
        "BR: AMC FHD",
        "BR: Animal Planet FHD",
        "BR: Arte 1 FHD",
        "BR: AXN FHD",                  
        "BR: Band FHD",
        "BR: Band Mais Campinas FHD",                
        "BR: Band Sports FHD",
        "BR: Bloomberg TV FHD",
        "BR: BIS FHD",
        "BR: Boa vontade FHD",
        "BR: Boomerang FHD",
        "BR: Canal Brasil FHD",
        "BR: Canal do boi FHD",
        "BR: Cartoon Network FHD",
        "BR: CBN News FHD",
        "BR: Chefe TV FHD",
        "BR: Cine Brasil FHD",
        "BR: Cinemax FHD",
        "BR: Clima Tempo FHD",
        "BR: CNN Brasil FHD",                
        "BR: CNT FHD",
        "BR: Combate FHD",
        "BR: Comedy Central FHD",                
        "BR: Curta FHD",                
        "BR: Discovery Channel FHD",
        "BR: Discovery Home Health FHD",
        "BR: Discovery Kids FHD",
        "BR: Discovery Science FHD",
        "BR: Discovery Theater FHD",
        "BR: Discovery Turbo FHD",
        "BR: Discovery World FHD",
        "BR: Disney Channel FHD",
        "BR: Dog TV FHD",
        "BR: DW Deutsch FHD",
        "BR: E! FHD",
        "BR: Euronews FHD",
        "BR: ESPN 1 FHD",
        "BR: ESPN 2 FHD",
        "BR: ESPN 3 FHD",
        "BR: ESPN 4 FHD",
        "BR: ESPN Extra FHD",
        "BR: ESR FHD",
        "BR: Fashion TV FHD",
        "BR: Film&arts FHD",
        "BR: Fish TV FHD",
        "BR: Food Network FHD",                
        "BR: FOX Sports 2 FHD",                                
        "BR: Futura FHD",
        "BR: FX FHD",
        "BR: Globo Belo Horizonte FHD",
        "BR: Globo Brasilia FHD",
        "BR: Globo Campinas FHD",
        "BR: Globo Centro America FHD",
        "BR: Globo EPTV Campinas FHD",
        "BR: Globo EPTV Ribeirao Preto FHD",
        "BR: Globo EPTV Sao Carlos FHD",
        "BR: Globo EPTV Sul De Minas FHD",
        "BR: Globo Inter TV Alto Litoral FHD",
        "BR: Globo Inter TV Cabugi Natal FHD",
        "BR: Globo Inter TV Dos Vales FHD",
        "BR: Globo Inter TV Grande Minas FHD",
        "BR: Globo Inter TV Serra Mar FHD",
        "BR: Globo Minas FHD",
        "BR: Globo News FHD",
        "BR: Globo Nordeste FHD",
        "BR: Globo Nsc TV Biumenau FHD",
        "BR: Globo Nsc TV Centro Oeste FHD",
        "BR: Globo Nsc TV Chapeco FHD",
        "BR: Globo Nsc TV Criciuma FHD",
        "BR: Globo Nsc TV Florianopolis FHD",
        "BR: Globo Nsc TV Joinville FHD",
        "BR: Globo Porto Alegre FHD",
        "BR: Globo Rbs TV Caxias Do Sul FHD",
        "BR: Globo Rbs TV Passo Fundo FHD",
        "BR: Globo Rbs TV Pelotas FHD",
        "BR: Globo Rio De Janeiro FHD",
        "BR: Globo Ribeirao Preto FHD",
        "BR: Globo Rj FHD",
        "BR: Globo Rpc Curitiba FHD",
        "BR: Globo Rpc Foz Do Iguacu FHD",
        "BR: Globo Rpc Maringa FHD",
        "BR: Globo Rpc TV Paranaval FHD",
        "BR: Globo Rpc TV Ponta Grossa FHD",
        "BR: Globo SP FHD",
        "BR: Globo TV Anhanguera FHD",
        "BR: Globo TV Bahia FHD",
        "BR: Globo TV Cabo Branco FHD",
        "BR: Globo TV Diario Mogi Das Cruzes FHD",
        "BR: Globo TV Fronteira P. Prudente FHD",
        "BR: Globo TV Gazeta Alagoas FHD",
        "BR: Globo TV Gazeta Sul FHD",
        "BR: Globo TV Gazeta Vitoria FHD",
        "BR: Globo TV Integracao Araxa FHD",
        "BR: Globo TV Integracao Juiz De Fora FHD",
        "BR: Globo TV Integracao Uberlandia FHD",
        "BR: Globo TV Liberal Belem FHD",
        "BR: Globo TV Mirante Cocais FHD",
        "BR: Globo TV Mirante Sao Luis FHD",
        "BR: Globo TV Morena FHD",
        "BR: Globo TV Morena Campo Grande FHD",
        "BR: Globo TV Rede Amazonica Boa Vista FHD",
        "BR: Globo TV Rede Amazonica Macapa FHD",
        "BR: Globo TV Rede Amazonica Manaus FHD",
        "BR: Globo TV Rede Amazonica Rio Branco FHD",
        "BR: Globo TV Rio Sul FHD",
        "BR: Globo TV Santa Cruz FHD",
        "BR: Globo TV Sergipe FHD",
        "BR: Globo TV Tem Bauru FHD",
        "BR: Globo TV Tem S.J.Rio Preto FHD",
        "BR: Globo TV Tem Sorocaba FHD",
        "BR: Globo TV Tribuna Santos FHD",
        "BR: Globo TV Vanguarda S.J.Dos Campos FHD",
        "BR: Globo TV Vanguarda Taubate FHD",
        "BR: Globo TV Verdes Mares Cariri FHD",
        "BR: Globo TV Verdes Mares Fortaleza FHD",
        "BR: Globosat FHD",
        "BR: Gloob FHD",
        "BR: Gloobinho FHD",
        "BR: Gnt FHD",
        "BR: Golf Channel FHD",
        "BR: H2 FHD",
        "BR: HBO FHD",
        "BR: HBO 2 FHD",
        "BR: HBO Family FHD",                
        "BR: HBO Mundi FHD",
        "BR: HBO Plus FHD",
        "BR: HBO pop FHD",                
        "BR: HBO Signature FHD",
        "BR: HBO Xtreme FHD",
        "BR: HGTV FHD",
        "BR: History FHD",
        "BR: ID FHD",
        "BR: Ideal TV FHD",
        "BR: Jovem Pan News FHD",
        "BR: Lifetime FHD",
        "BR: Libertadores 1 FHD",
        "BR: Libertadores 2 FHD",
        "BR: MegaPix FHD",                
        "BR: MTV 00s FHD",
        "BR: MTV FHD",
        "BR: MTV Live FHD",
        "BR: Multishow FHD",
        "BR: Music Box Brasil FHD",
        "BR: NatGeo FHD",                
        "BR: NHK FHD",
        "BR: Nick Jr FHD",
        "BR: Nickelondeon FHD",
        "BR: Off FHD",
        "BR: Paramount FHD",                
        "BR: Polishop FHD",
        "BR: Premieres 2 FHD",
        "BR: Premieres 3 FHD",
        "BR: Premieres 4 FHD",
        "BR: Premieres 5 FHD",
        "BR: Premieres 6 FHD",
        "BR: Premieres 7 FHD",
        "BR: Premieres 8 FHD",
        "BR: Premieres Clubes FHD",
        "BR: Prime Box Brazil FHD",
        "BR: Rai News 24 FHD",
        "BR: Record Belem Do Para FHD",
        "BR: Record Cabralia FHD",
        "BR: Record Goias FHD",
        "BR: Record Interior SP FHD",
        "BR: Record Litoral Vale Do Parnalba FHD",
        "BR: Record News FHD",
        "BR: Record Paulista FHD",
        "BR: Record Rio FHD",
        "BR: Record Rio Preto FHD",
        "BR: Record Rj Interior FHD",
        "BR: Record Rs FHD",
        "BR: Record Sic TV Rondonia FHD",
        "BR: Record Sp FHD",
        "BR: Record TV Thathi Campinas FHD",
        "BR: RecordTV Campinas FHD",
        "BR: RecordTV FHD",
        "BR: RecordTV Sp FHD",
        "BR: RecordTV Vila Real FHD",
        "BR: Red Bull TV FHD",
        "BR: Rede Familia FHD",
        "BR: Rede Genesis FHD",
        "BR: Rede Gospel FHD",
        "BR: Rede Super FHD",
        "BR: Rede TV FHD",
        "BR: Rede Vida FHD",                
        "BR: Sabor e Arte FHD",
        "BR: Sbt Bahia FHD",
        "BR: Sbt Rio FHD",
        "BR: Sbt Rs FHD",
        "BR: Sbt Sp FHD",
        "BR: Sbt TV Alterosa FHD",
        "BR: Sbt TV Aratu FHD",
        "BR: Shoptime HD",
        "BR: Smithsonian FHD",
        "BR: Sony FHD",
        "BR: Space FHD",
        "BR: Sport TV FHD",
        "BR: Sport TV2 FHD",
        "BR: Sport TV3 FHD",
        "BR: Star channel FHD",
        "BR: Star life FHD",
        "BR: Studio Universal FHD",
        "BR: Syfy FHD",
        "BR: Tbs FHD",
        "BR: TC Action FHD",
        "BR: TC Cult FHD",                
        "BR: TC Fun FHD",
        "BR: TC Pipoca FHD",
        "BR: TC Premium FHD",
        "BR: TC Touch FHD",
        "BR: TCM FHD",                
        "BR: TLC FHD",
        "BR: TNT FHD",
        "BR: TNT Series FHD",                
        "BR: Travel Box Brazil FHD",
        "BR: TruTV FHD",
        "BR: TV Acritica FHD",
        "BR: TV Aparecida FHD",
        "BR: TV Assembleia FHD",
        "BR: TV Brasil FHD",
        "BR: TV Brasil 2 FHD",
        "BR: TV Camara FHD",
        "BR: TV Cultura FHD",
        "BR: TV Escola FHD",
        "BR: TV Gazeta FHD",
        "BR: TV Gazeta Sp FHD",
        "BR: TV Mundo Maior FHD",
        "BR: TV novo tempo FHD",
        "BR: TV Pai Eterno FHD",
        "BR: TV Ra Tim Bum FHD",
        "BR: TV Senado FHD",
        "BR: TVE FHD",
        "BR: Universal Channels FHD",                
        "BR: Viva FHD",
        "BR: Warner FHD",
        "BR: Woohoo FHD",
        "BR: Zoomo FHD"
      ]
    },
    {
      "name": "Abertos",
      "subcategory": [ 
        "BR: Agro Canal FHD",
		"BR: Band FHD",
        "BR: Band Mais Campinas FHD",
		"BR: Canal do boi FHD",
		"BR: Clima Tempo FHD",
		"BR: Futura FHD",
		"BR: Polishop FHD",
		"BR: Rede Genesis FHD",
		"BR: Shoptime HD",
		"BR: Terra Viva HD",
		"BR: TV Acritica FHD",
        "BR: TV Aparecida FHD",
        "BR: TV Assembleia FHD",
        "BR: TV Brasil FHD",
        "BR: TV Brasil 2 FHD",
        "BR: TV Camara FHD",
        "BR: TV Cultura FHD",
        "BR: TV Escola FHD",
        "BR: TV Gazeta FHD",
        "BR: TV Gazeta Sp FHD",
        "BR: TV Mundo Maior FHD",
        "BR: TV novo tempo FHD",
        "BR: TV Pai Eterno FHD",
        "BR: TV Ra Tim Bum FHD",
        "BR: TV Senado FHD"
      ]
    },
    {
      "name": "Esportes",
      "subcategory": [ 
		"BR: Amazon Prime 1 HD",
        "BR: Amazon Prime 2 HD",
		"BR: Band Sports FHD",
		"BR: Combate FHD",
		"BR: Conmebol TV 1 HD",
        "BR: Conmebol TV 2 HD",
        "BR: Conmebol TV 3 HD",
        "BR: Conmebol TV 4 HD",
        "BR: Campeonato Carioca 1 HD",
        "BR: Campeonato Carioca 2 HD",
        "BR: Copa Nordeste 1 HD",
        "BR: Copa Nordeste 2 HD",
		"BR: DAZN 1 HD",
        "BR: DAZN 2 HD",
		"BR: ESPN 1 FHD",
        "BR: ESPN 2 FHD",
        "BR: ESPN 3 FHD",
        "BR: ESPN 4 FHD",
        "BR: ESPN Extra FHD",
		"BR: ESR FHD",
		"BR: Fish TV FHD",
		"BR: FOX Sports 2 FHD",
		"BR: Furacao Play HD",
		"BR: Futebol Pelo Mundo",
		"BR: Golf Channel FHD",
		"BR: HBO Max 1 HD",
        "BR: HBO Max 2 HD",
        "BR: HBO Max 3 HD",
        "BR: HBO Max 4 HD",
		"BR: HBO Plus FHD",
        "BR: HBO pop FHD",
        "BR: HBO Pop HD LEG",
        "BR: HBO Signature FHD",
        "BR: HBO Xtreme FHD",
		"BR: Libertadores 1 FHD",
        "BR: Libertadores 2 FHD",
		"BR: NordesteFC 1 HD",
        "BR: NordesteFC 2 HD",
		"BR: Paulistao Play 1 HD",
        "BR: Paulistao Play 2 HD",
        "BR: Paulistao Play 3 HD",
        "BR: Paulistao Play 4 HD",
		"BR: Premieres 2 FHD",
        "BR: Premieres 3 FHD",
        "BR: Premieres 4 FHD",
        "BR: Premieres 5 FHD",
        "BR: Premieres 6 FHD",
        "BR: Premieres 7 FHD",
        "BR: Premieres 8 FHD",
        "BR: Premieres Clubes FHD",
		"BR: Red Bull TV FHD",
		"BR: Sport TV FHD",
        "BR: Sport TV2 FHD",
        "BR: Sport TV3 FHD"
      ]
    },
    {
      "name": "Filmes e séries",
      "subcategory": [        
        "BR: A&E FHD",
		"BR: AMC FHD",
		"BR: AXN FHD",
		"BR: Cine Brasil FHD",
		"BR: Cinemax FHD",
		"BR: Film&arts FHD",
		"BR: FX FHD",
		"BR: HBO FHD",
		"BR: HBO 2 FHD",
		"BR: HBO Family FHD",
		"BR: MegaPix FHD",
        "BR: MegaPix HD LEG",
		"BR: Paramount FHD",
		"BR: Prime Box Brazil FHD",
		"BR: Sony FHD",
		"BR: Space FHD",
		"BR: Star channel FHD",
		"BR: Star life FHD",
		"BR: Studio Universal FHD",
		"BR: Syfy FHD",
		"BR: TC Action FHD",
        "BR: TC Cult FHD",
        "BR: TC Cult LEG HD",
        "BR: TC Fun FHD",
        "BR: TC Pipoca FHD",
        "BR: TC Premium FHD",
        "BR: TC Touch FHD",
		"BR: TCM FHD",
		"BR: TNT FHD",
        "BR: TNT Series FHD",
		"BR: Universal Channels FHD",
		"BR: Urban Movies HD",
        "BR: Urban Series HD",
		"BR: Warner FHD"
      ]
    },
    {
      "name": "Infantil",
      "subcategory": [
		"BR: Baby TV",
		"BR: Boomerang FHD",
		"BR: Cartoon Network FHD",
		"BR: Discovery Kids FHD",
		"BR: Disney Channel FHD",
		"BR: Gloob FHD",
		"BR: Gloobinho FHD",
		"BR: Nick Jr FHD",
        "BR: Nickelondeon FHD",
		"BR: Tooncast HD",
		"BR: Urban Kids HD",
		"BR: Zoomo FHD"
      ]
    },
    {
      "name": "Noticias",
      "subcategory": [ 
		"BR: Band News HD",
		"BR: Bloomberg TV FHD",
		"BR: CBN News FHD",
		"BR: CNN Brasil FHD",
        "BR: CNN Internacional",
		"BR: FOX News",
		"BR: Jovem Pan News FHD",
		"BR: NHK FHD",
		"BR: Rai News 24 FHD"
      ]
    },
    {
      "name": "Documentários",
      "subcategory": [
        "BR: Animal Planet FHD",
		"BR: Curta FHD",
		"BR: Discovery Channel FHD",
		"BR: Discovery Home Health FHD",
		"BR: Discovery Science FHD",
		"BR: Discovery Theater FHD",
        "BR: Discovery Turbo FHD",
        "BR: Discovery World FHD",
		"BR: H2 FHD",
		"BR: History FHD",
		"BR: ID FHD",
		"BR: NatGeo FHD",
		"BR: Sabor e Arte FHD",
		"BR: Smithsonian FHD",
		"BR: TLC FHD",
		"BR: Urban Docs HD"
      ]
    },
    {
      "name": "Variedades e Músicas",
      "subcategory": [  
		"BR: Arte 1 FHD",
		"BR: BIS FHD",
		"BR: Canal Brasil FHD",
		"BR: Canal rural",
		"BR: Chefe TV FHD",
		"BR: Comedy Central FHD",
		"BR: Dog TV FHD",
		"BR: E! FHD",
		"BR: Fashion TV FHD",
		"BR: Food Network FHD",
		"BR: Globosat FHD",
		"BR: Gnt FHD",
		"BR: HGTV FHD",
		"BR: Lifetime FHD",
		"BR: MTV 00s FHD",
        "BR: MTV FHD",
        "BR: MTV Live FHD",
		"BR: Multishow FHD",
		"BR: Music Box Brasil FHD",
		"BR: Off FHD",
		"BR: Sbt Bahia FHD",
        "BR: Sbt Rio FHD",
        "BR: Sbt Rs FHD",
        "BR: Sbt Sp FHD",
		"BR: Tbs FHD",
		"BR: Travel Box Brazil FHD",
		"BR: TruTV FHD",
		"BR: TVE FHD",
		"BR: Viva FHD",
		"BR: Woohoo FHD"
      ]
    },    
    {
      "name": "Canais SD",
      "subcategory": [ 	
		"BR: Boa vontade FHD",
		"BR: Cancao Nova HD",
		"BR: CNT FHD",
		"BR: DW Deutsch FHD",
		"BR: Euronews FHD",
		"BR: Globo Belo Horizonte FHD",
        "BR: Globo Brasilia FHD",
        "BR: Globo Campinas FHD",
        "BR: Globo Centro America FHD",
        "BR: Globo EPTV Campinas FHD",
        "BR: Globo EPTV Ribeirao Preto FHD",
        "BR: Globo EPTV Sao Carlos FHD",
        "BR: Globo EPTV Sul De Minas FHD",
        "BR: Globo Inter TV Alto Litoral FHD",
        "BR: Globo Inter TV Cabugi Natal FHD",
        "BR: Globo Inter TV Dos Vales FHD",
        "BR: Globo Inter TV Grande Minas FHD",
        "BR: Globo Inter TV Serra Mar FHD",
        "BR: Globo Minas FHD",
        "BR: Globo News FHD",
        "BR: Globo Nordeste FHD",
        "BR: Globo Nsc TV Biumenau FHD",
        "BR: Globo Nsc TV Centro Oeste FHD",
        "BR: Globo Nsc TV Chapeco FHD",
        "BR: Globo Nsc TV Criciuma FHD",
        "BR: Globo Nsc TV Florianopolis FHD",
        "BR: Globo Nsc TV Joinville FHD",
        "BR: Globo Porto Alegre FHD",
        "BR: Globo Rbs TV Caxias Do Sul FHD",
        "BR: Globo Rbs TV Passo Fundo FHD",
        "BR: Globo Rbs TV Pelotas FHD",
        "BR: Globo Rio De Janeiro FHD",
        "BR: Globo Ribeirao Preto FHD",
        "BR: Globo Rj FHD",
        "BR: Globo Rpc Curitiba FHD",
        "BR: Globo Rpc Foz Do Iguacu FHD",
        "BR: Globo Rpc Maringa FHD",
        "BR: Globo Rpc TV Paranaval FHD",
        "BR: Globo Rpc TV Ponta Grossa FHD",
        "BR: Globo SP FHD",
        "BR: Globo TV Anhanguera FHD",
        "BR: Globo TV Bahia FHD",
        "BR: Globo TV Cabo Branco FHD",
        "BR: Globo TV Diario Mogi Das Cruzes FHD",
        "BR: Globo TV Fronteira P. Prudente FHD",
        "BR: Globo TV Gazeta Alagoas FHD",
        "BR: Globo TV Gazeta Sul FHD",
        "BR: Globo TV Gazeta Vitoria FHD",
        "BR: Globo TV Integracao Araxa FHD",
        "BR: Globo TV Integracao Juiz De Fora FHD",
        "BR: Globo TV Integracao Uberlandia FHD",
        "BR: Globo TV Liberal Belem FHD",
        "BR: Globo TV Mirante Cocais FHD",
        "BR: Globo TV Mirante Sao Luis FHD",
        "BR: Globo TV Morena FHD",
        "BR: Globo TV Morena Campo Grande FHD",
        "BR: Globo TV Rede Amazonica Boa Vista FHD",
        "BR: Globo TV Rede Amazonica Macapa FHD",
        "BR: Globo TV Rede Amazonica Manaus FHD",
        "BR: Globo TV Rede Amazonica Rio Branco FHD",
        "BR: Globo TV Rio Sul FHD",
        "BR: Globo TV Santa Cruz FHD",
        "BR: Globo TV Sergipe FHD",
        "BR: Globo TV Tem Bauru FHD",
        "BR: Globo TV Tem S.J.Rio Preto FHD",
        "BR: Globo TV Tem Sorocaba FHD",
        "BR: Globo TV Tribuna Santos FHD",
        "BR: Globo TV Vanguarda S.J.Dos Campos FHD",
        "BR: Globo TV Vanguarda Taubate FHD",
        "BR: Globo TV Verdes Mares Cariri FHD",
        "BR: Globo TV Verdes Mares Fortaleza FHD",
		"BR: Ideal TV FHD",
		"BR: Record Belem Do Para FHD",
        "BR: Record Cabralia FHD",
        "BR: Record Goias FHD",
        "BR: Record Interior SP FHD",
        "BR: Record Litoral Vale Do Parnalba FHD",
        "BR: Record News FHD",
        "BR: Record Paulista FHD",
        "BR: Record Rio FHD",
        "BR: Record Rio Preto FHD",
        "BR: Record Rj Interior FHD",
        "BR: Record Rs FHD",
        "BR: Record Sic TV Rondonia FHD",
        "BR: Record Sp FHD",
        "BR: Record TV Thathi Campinas FHD",
        "BR: RecordTV Campinas FHD",
        "BR: RecordTV FHD",
        "BR: RecordTV Sp FHD",
        "BR: RecordTV Vila Real FHD",
		"BR: Rede Familia FHD",
		"BR: Rede Gospel FHD",
		"BR: Rede Super FHD",
		"BR: Rede TV FHD",
        "BR: Rede Vida FHD",
		"BR: Sbt TV Alterosa FHD",
        "BR: Sbt TV Aratu FHD"
      ]
    },    
       {
     "name": "Hot",
     "subcategory": [	
		"AR: Playboy FHD",
        "AR: Sexy Hot FHD",
        "AR: Sex Prive HD",
        "AR: Sextreme FHD",
        "AR: Venus FHD" 
     ]
   }
  ]
}